module gitlab.com/lyda/template-go-api

go 1.21.3

require (
	github.com/DATA-DOG/go-sqlmock v1.5.0
	github.com/dlmiddlecote/sqlstats v1.0.2
	github.com/getkin/kin-openapi v0.120.0
	github.com/labstack/echo-contrib v0.15.0
	github.com/labstack/echo/v4 v4.11.2
	github.com/oapi-codegen/runtime v1.0.0
	github.com/prometheus/client_golang v1.17.0
	github.com/spf13/cobra v1.8.0
	github.com/stretchr/testify v1.8.4
	modernc.org/sqlite v1.27.0
)

require (
	github.com/Azure/go-ansiterm v0.0.0-20210617225240-d185dfc1b5a1 // indirect
	github.com/MakeNowJust/heredoc v1.0.0 // indirect
	github.com/apapsch/go-jsonmerge/v2 v2.0.0 // indirect
	github.com/beorn7/perks v1.0.1 // indirect
	github.com/cespare/xxhash/v2 v2.2.0 // indirect
	github.com/chai2010/gettext-go v1.0.2 // indirect
	github.com/davecgh/go-spew v1.1.1 // indirect
	github.com/daviddengcn/go-colortext v1.0.0 // indirect
	github.com/docker/distribution v2.8.2+incompatible // indirect
	github.com/dustin/go-humanize v1.0.1 // indirect
	github.com/emicklei/go-restful/v3 v3.9.0 // indirect
	github.com/evanphx/json-patch v4.12.0+incompatible // indirect
	github.com/exponent-io/jsonpath v0.0.0-20151013193312-d6023ce2651d // indirect
	github.com/fatih/camelcase v1.0.0 // indirect
	github.com/fvbommel/sortorder v1.1.0 // indirect
	github.com/go-errors/errors v1.4.2 // indirect
	github.com/go-logr/logr v1.2.4 // indirect
	github.com/go-openapi/jsonpointer v0.20.0 // indirect
	github.com/go-openapi/jsonreference v0.20.2 // indirect
	github.com/go-openapi/swag v0.22.4 // indirect
	github.com/gogo/protobuf v1.3.2 // indirect
	github.com/golang-jwt/jwt v3.2.2+incompatible // indirect
	github.com/golang/protobuf v1.5.3 // indirect
	github.com/google/btree v1.0.1 // indirect
	github.com/google/gnostic-models v0.6.8 // indirect
	github.com/google/go-cmp v0.5.9 // indirect
	github.com/google/gofuzz v1.2.0 // indirect
	github.com/google/shlex v0.0.0-20191202100458-e7afc7fbc510 // indirect
	github.com/google/uuid v1.4.0 // indirect
	github.com/gregjones/httpcache v0.0.0-20180305231024-9cad4c3443a7 // indirect
	github.com/imdario/mergo v0.3.6 // indirect
	github.com/inconshreveable/mousetrap v1.1.0 // indirect
	github.com/invopop/yaml v0.2.0 // indirect
	github.com/jonboulle/clockwork v0.2.2 // indirect
	github.com/josharian/intern v1.0.0 // indirect
	github.com/json-iterator/go v1.1.12 // indirect
	github.com/kballard/go-shellquote v0.0.0-20180428030007-95032a82bc51 // indirect
	github.com/labstack/gommon v0.4.0 // indirect
	github.com/liggitt/tabwriter v0.0.0-20181228230101-89fcab3d43de // indirect
	github.com/lithammer/dedent v1.1.0 // indirect
	github.com/mailru/easyjson v0.7.7 // indirect
	github.com/mattn/go-colorable v0.1.13 // indirect
	github.com/mattn/go-isatty v0.0.20 // indirect
	github.com/mattn/go-sqlite3 v1.14.17 // indirect
	github.com/matttproud/golang_protobuf_extensions v1.0.4 // indirect
	github.com/matttproud/golang_protobuf_extensions/v2 v2.0.0 // indirect
	github.com/mitchellh/go-wordwrap v1.0.1 // indirect
	github.com/moby/spdystream v0.2.0 // indirect
	github.com/moby/term v0.0.0-20221205130635-1aeaba878587 // indirect
	github.com/modern-go/concurrent v0.0.0-20180306012644-bacd9c7ef1dd // indirect
	github.com/modern-go/reflect2 v1.0.2 // indirect
	github.com/mohae/deepcopy v0.0.0-20170929034955-c48cc78d4826 // indirect
	github.com/monochromegane/go-gitignore v0.0.0-20200626010858-205db1a8cc00 // indirect
	github.com/munnerz/goautoneg v0.0.0-20191010083416-a7dc8b61c822 // indirect
	github.com/mxk/go-flowrate v0.0.0-20140419014527-cca7078d478f // indirect
	github.com/opencontainers/go-digest v1.0.0 // indirect
	github.com/perimeterx/marshmallow v1.1.5 // indirect
	github.com/peterbourgon/diskv v2.0.1+incompatible // indirect
	github.com/pkg/errors v0.9.1 // indirect
	github.com/pmezard/go-difflib v1.0.0 // indirect
	github.com/prometheus/client_model v0.5.0 // indirect
	github.com/prometheus/common v0.45.0 // indirect
	github.com/prometheus/procfs v0.12.0 // indirect
	github.com/remyoudompheng/bigfft v0.0.0-20230129092748-24d4a6f8daec // indirect
	github.com/russross/blackfriday/v2 v2.1.0 // indirect
	github.com/spf13/pflag v1.0.5 // indirect
	github.com/stretchr/objx v0.5.0 // indirect
	github.com/valyala/bytebufferpool v1.0.0 // indirect
	github.com/valyala/fasttemplate v1.2.2 // indirect
	github.com/xlab/treeprint v1.2.0 // indirect
	go.starlark.net v0.0.0-20230525235612-a134d8f9ddca // indirect
	golang.org/x/crypto v0.14.0 // indirect
	golang.org/x/mod v0.14.0 // indirect
	golang.org/x/net v0.17.0 // indirect
	golang.org/x/oauth2 v0.12.0 // indirect
	golang.org/x/sync v0.4.0 // indirect
	golang.org/x/sys v0.14.0 // indirect
	golang.org/x/term v0.13.0 // indirect
	golang.org/x/text v0.14.0 // indirect
	golang.org/x/time v0.4.0 // indirect
	golang.org/x/tools v0.14.0 // indirect
	google.golang.org/appengine v1.6.7 // indirect
	google.golang.org/protobuf v1.31.0 // indirect
	gopkg.in/inf.v0 v0.9.1 // indirect
	gopkg.in/yaml.v2 v2.4.0 // indirect
	gopkg.in/yaml.v3 v3.0.1 // indirect
	k8s.io/api v0.28.3 // indirect
	k8s.io/apimachinery v0.28.3 // indirect
	k8s.io/cli-runtime v0.28.3 // indirect
	k8s.io/client-go v0.28.3 // indirect
	k8s.io/component-base v0.28.3 // indirect
	k8s.io/component-helpers v0.28.3 // indirect
	k8s.io/klog/v2 v2.100.1 // indirect
	k8s.io/kube-openapi v0.0.0-20230717233707-2695361300d9 // indirect
	k8s.io/kubectl v0.28.3 // indirect
	k8s.io/metrics v0.28.3 // indirect
	k8s.io/utils v0.0.0-20230406110748-d93618cff8a2 // indirect
	lukechampine.com/uint128 v1.3.0 // indirect
	modernc.org/cc/v3 v3.41.0 // indirect
	modernc.org/ccgo/v3 v3.16.15 // indirect
	modernc.org/libc v1.30.0 // indirect
	modernc.org/mathutil v1.6.0 // indirect
	modernc.org/memory v1.7.2 // indirect
	modernc.org/opt v0.1.3 // indirect
	modernc.org/strutil v1.2.0 // indirect
	modernc.org/token v1.1.0 // indirect
	sigs.k8s.io/json v0.0.0-20221116044647-bc3834ca7abd // indirect
	sigs.k8s.io/kustomize/api v0.13.5-0.20230601165947-6ce0bf390ce3 // indirect
	sigs.k8s.io/kustomize/kustomize/v5 v5.0.4-0.20230601165947-6ce0bf390ce3 // indirect
	sigs.k8s.io/kustomize/kyaml v0.14.3-0.20230601165947-6ce0bf390ce3 // indirect
	sigs.k8s.io/structured-merge-diff/v4 v4.2.3 // indirect
	sigs.k8s.io/yaml v1.3.0 // indirect
)
