{
  "$schema": "http://json-schema.org/draft-04/schema#",
  "title": "New Pet",
  "description": "Create a new pet",
  "type": "object",
  "properties": {
      "name": {
          "description": "Name of pet",
          "type": "string"
      },
      "tag": {
          "description": "Tag for pet",
          "type": "string"
      }
  },
  "required": ["name"]
}
